<?xml version="1.0" encoding="UTF-8" standalone="no"?>
<svg xmlns="http://www.w3.org/2000/svg" height="512" width="512" version="1.1" viewBox="0 0 512 512">
 <defs><linearGradient id="a" gradientUnits="userSpaceOnUse" x2="512" y1="512"><stop style="stop-color:#115f6b" offset="0"/><stop style="stop-color:#1f7287" offset="1"/></linearGradient></defs>
 <rect style="fill:url(#a)" height="512" width="512" y="0" x="0"/>
<g style="fill:#e5e5e5">
 <path d="m311.7 468.8v30.17a8.7 8.7 0 0 1 -8.7 8.7h-99.4a8.7 8.7 0 0 1 -8.7 -8.7v-30.17a8.7 8.7 0 0 1 8.7 -8.7h25.86v-70.56l47.56 2.628v67.94h25.86a8.7 8.7 0 0 1 8.789 8.745z"/>
 <path d="m277.1 81.09v20.65l85.19-4.532a20.29 20.29 0 0 1 16.14 6.344l31.17 33.89a20.39 20.39 0 0 1 1.449 25.78l-27.18 37.15a20.26 20.26 0 0 1 -15.26 8.289l-245.9 13.67h-1.178a20.34 20.34 0 0 1 -16.29 -32.35l17.26-23.83-19.85-21.56a20.34 20.34 0 0 1 13.82 -34.07l113-6.071v-23.24a11.87 11.87 0 0 1 11.87 -11.87h23.79a11.87 11.87 0 0 1 11.92 11.87z"/>
 <path d="m409.5 300.4-19.85 21.56 17.36 23.65a20.34 20.34 0 0 1 -16.35 32.34h-1.178l-245.9-13.5a20.26 20.26 0 0 1 -15.26 -8.289l-27.19-37.23a20.39 20.39 0 0 1 1.358 -26.01l31.17-33.66a20.39 20.39 0 0 1 16.08 -6.525l79.59 4.532v-20.69l47.8-2.542v25.86l118.6 6.569a20.34 20.34 0 0 1 13.82 34.07z"/>
</g><g style="fill:#006a97"> <path d="m126.4 134.5 19.66 21.38a14.31 14.31 0 0 1 0.9966 18.12l-17.17 23.42 235.3-13.09 24.15-32.89-27.59-29.99z"/> <path d="m366.1 311.8 19.65-21.33-235.3-13.04-27.67 29.99 24.2 32.89 235.3 13.03-17.25-23.42a14.27 14.27 0 0 1 0.9966 -18.12z"/></g></svg>
